cantidad,primos,log,base,exp10
2,2,2,2,2
5,5,5,5,3
8,8,8,8,3
10,10,10,10,3
11,11,11,11,3
14,14,14,11,3
17,16,17,11,5
20,19,18,13,8
23,19,19,16,11
26,19,20,17,15
32,20,20,16,18
35,20,20,17,18
47,20,20,17,19
59,20,20,19,20
